{
	"info": {
		"_postman_id": "deaf653a-42f3-4c27-9ea3-bbe6761f7e92",
		"name": "mlm system",
		"schema": "https://schema.getpostman.com/json/collection/v2.1.0/collection.json",
		"_exporter_id": "19476584"
	},
	"item": [
		{
			"name": "{{localhost}}/api/v1/customer/add",
			"request": {
				"method": "POST",
				"header": [],
				"body": {
					"mode": "raw",
					"raw": "{\r\n    \"parent_id\":2,\r\n    \"name\":\"jay\",\r\n    \"address\":\"rajkot\",\r\n    \"email\":\"jay@techtic.com\"\r\n}",
					"options": {
						"raw": {
							"language": "json"
						}
					}
				},
				"url": {
					"raw": "{{localhost}}/api/v1/customer/add",
					"host": [
						"{{localhost}}"
					],
					"path": [
						"api",
						"v1",
						"customer",
						"add"
					]
				}
			},
			"response": []
		},
		{
			"name": "{{localhost}}/api/v1/customer/update",
			"request": {
				"method": "PATCH",
				"header": [],
				"body": {
					"mode": "raw",
					"raw": "{\r\n    \"id\":6,\r\n    \"name\":\"jay sg\",\r\n    \"address\":\"rajkot\",\r\n    \"email\":\"jay@techtic.com\"\r\n}",
					"options": {
						"raw": {
							"language": "json"
						}
					}
				},
				"url": {
					"raw": "{{localhost}}/api/v1/customer/update",
					"host": [
						"{{localhost}}"
					],
					"path": [
						"api",
						"v1",
						"customer",
						"update"
					]
				}
			},
			"response": []
		},
		{
			"name": "{{localhost}}/api/v1/customer/purchase",
			"request": {
				"method": "POST",
				"header": [],
				"body": {
					"mode": "raw",
					"raw": "{\r\n    \"product_id\":1,\r\n    \"customer_id\":2\r\n}",
					"options": {
						"raw": {
							"language": "json"
						}
					}
				},
				"url": {
					"raw": "{{localhost}}/api/v1/customer/purchase",
					"host": [
						"{{localhost}}"
					],
					"path": [
						"api",
						"v1",
						"customer",
						"purchase"
					]
				}
			},
			"response": []
		},
		{
			"name": "{{localhost}}/api/v1/customer/all",
			"request": {
				"method": "GET",
				"header": [],
				"url": {
					"raw": "{{localhost}}/api/v1/customer/all",
					"host": [
						"{{localhost}}"
					],
					"path": [
						"api",
						"v1",
						"customer",
						"all"
					]
				}
			},
			"response": []
		}
	]
}